n,insertion sort (random),merge sort (random),==,insertion sort (reverse sorted), merge sort (reverse sorted)
4,11.2057,59.8431,-,11.2057,17.8814
4,10.252,31.4713,-,10.252,17.4046
4,10.252,39.1006,-,9.7752,17.4046
4,9.7752,30.2792,-,10.0136,17.8814
4,9.7752,29.5639,-,10.0136,16.9277
4,10.4904,28.3718,-,10.0136,16.6893
4,10.4904,29.5639,-,9.5367,17.643
4,10.7288,28.3718,-,9.7752,16.9277
4,11.6825,46.0148,-,9.7752,17.1661
4,10.7288,29.8023,-,10.0136,17.4046
16,38.147,1481.5331,-,48.1606,75.1019
16,28.3718,99.4205,-,47.9221,74.625
16,26.4645,97.7516,-,48.6374,87.9765
16,32.6633,92.5064,-,47.9221,76.5324
16,25.5108,96.5595,-,47.4453,76.5324
16,27.6566,96.0827,-,48.1606,89.6454
16,28.6102,96.0827,-,47.6837,75.1019
16,33.1402,102.7584,-,59.3662,78.2013
16,29.3255,92.9832,-,47.6837,76.0555
16,27.1797,97.5132,-,47.9221,77.0092
64,323.0572,1991.5104,-,582.4566,397.6822
64,234.127,525.9514,-,588.1786,375.9861
64,240.3259,534.7729,-,576.2577,393.6291
64,272.5124,508.5468,-,650.8827,373.6019
64,263.4525,522.6135,-,576.2577,390.5296
64,290.3938,520.4678,-,705.719,413.6562
64,284.9102,536.4418,-,576.2577,385.7613
64,287.5328,535.965,-,598.4306,416.0404
64,286.8176,542.6407,-,591.5165,374.0788
64,292.3012,518.7988,-,589.8476,373.3635
256,3708.1242,3109.2167,-,10330.4386,3567.934
256,4209.0416,3993.5112,-,8918.047,2223.0148
256,3785.8486,4157.5432,-,9284.9731,2056.3602
256,3891.2296,4235.0292,-,9210.825,2121.9254
256,3455.4005,3995.1801,-,8812.4275,2147.4361
256,3658.0563,4089.1171,-,8888.2446,2427.8164
256,3639.9364,4356.6227,-,9390.831,2162.4565
256,4270.5536,3992.7959,-,8842.2298,2197.504
256,4718.7805,4018.3067,-,12306.6902,2218.008
256,4240.7513,4788.8756,-,10623.455,1849.6513
1024,68971.6339,31872.0341,-,167769.1936,29733.4194
1024,73997.0207,24772.4056,-,158421.0396,16942.5011
1024,62425.8518,27090.0726,-,143255.4722,14315.6052
1024,62286.1385,25930.4047,-,143587.1124,17828.4645
1024,60629.8447,23216.0091,-,144051.5518,15235.9009
1024,60003.7575,24476.0513,-,141714.8113,12368.679
1024,60562.6106,24147.7489,-,142057.8957,16602.0393
1024,59797.5254,23236.0363,-,141272.7833,16286.3731
1024,67631.4831,25822.1626,-,163224.2203,18877.2678
1024,62524.5571,23817.5392,-,153778.7914,12962.5797
2048,282858.6102,82484.7221,-,643637.4187,51902.771
2048,258871.7937,71946.6209,-,633326.0536,49239.397
2048,238785.5053,69508.791,-,571098.8045,43164.2532
2048,268584.9667,63898.0865,-,578846.9315,39647.3408
2048,234210.4912,61998.8441,-,565463.3045,40613.4129
2048,232841.2533,62621.8319,-,561449.7662,41583.7765
2048,239411.3541,58774.2329,-,562061.5482,38654.8042
2048,236167.1925,58348.6557,-,614651.2032,39240.5987
2048,271947.1455,65157.1751,-,594403.2669,46883.3447
2048,267817.2588,68701.5057,-,644365.3107,38837.4329
